lr3/simulation/qsim/lr3.msim.vcd
$comment
	File created using the following command:
		vcd file lr3.msim.vcd -direction
$end
$date
	Sun Nov 30 17:30:35 2025
$end
$version
	ModelSim Version 10.1d
$end
$timescale
	1ps
$end
$scope module uart_vlg_vec_tst $end
$var reg 1 ! clk50 $end
$var reg 1 " reset_n $end
$var reg 1 # uart_rx $end
$var wire 1 $ uart_tx $end
$var wire 1 % sampler $end
$scope module i1 $end
$var wire 1 & gnd $end
$var wire 1 ' vcc $end
$var wire 1 ( unknown $end
$var tri1 1 ) devclrn $end
$var tri1 1 * devpor $end
$var tri1 1 + devoe $end
$var wire 1 , RX|state.IDLE~q $end
$var wire 1 - RX|Selector0~0_combout $end
$var wire 1 . RX|Selector0~1_combout $end
$var wire 1 / RX|rxbuf[4]~4_combout $end
$var wire 1 0 clk50~input_o $end
$var wire 1 1 ~QUARTUS_CREATED_GND~I_combout $end
$var wire 1 2 clk50~inputCLKENA0_outclk $end
$var wire 1 3 TX|cnt[0]~2_combout $end
$var wire 1 4 reset_n~input_o $end
$var wire 1 5 TX|cnt[1]~1_combout $end
$var wire 1 6 TX|cnt[2]~0_combout $end
$var wire 1 7 TX|Equal0~0_combout $end
$var wire 1 8 TX|baud_tick~DUPLICATE_q $end
$var wire 1 9 TX|bits_left[1]~2_combout $end
$var wire 1 : TX|bits_left[1]~DUPLICATE_q $end
$var wire 1 ; tx_start_pulse~DUPLICATE_q $end
$var wire 1 < TX|start_d~q $end
$var wire 1 = TX|baud_tick~q $end
$var wire 1 > TX|bits_left[3]~3_combout $end
$var wire 1 ? TX|bits_left[3]~DUPLICATE_q $end
$var wire 1 @ TX|bits_left[2]~0_combout $end
$var wire 1 A TX|bits_left[2]~DUPLICATE_q $end
$var wire 1 B uart_rx~input_o $end
$var wire 1 C RX|rx_sync_0~q $end
$var wire 1 D RX|rx_sync_1~q $end
$var wire 1 E RX|Selector3~2_combout $end
$var wire 1 F RX|half_start~q $end
$var wire 1 G RX|baud_cnt~0_combout $end
$var wire 1 H RX|baud_cnt~2_combout $end
$var wire 1 I RX|baud_cnt~1_combout $end
$var wire 1 J RX|baud_tick~0_combout $end
$var wire 1 K RX|baud_tick~DUPLICATE_q $end
$var wire 1 L RX|Add1~13_sumout $end
$var wire 1 M RX|bitpos[3]~0_combout $end
$var wire 1 N RX|bitpos[0]~DUPLICATE_q $end
$var wire 1 O RX|state.START~q $end
$var wire 1 P RX|Selector1~0_combout $end
$var wire 1 Q RX|state.START~DUPLICATE_q $end
$var wire 1 R RX|baud_tick~q $end
$var wire 1 S RX|Selector2~0_combout $end
$var wire 1 T RX|Selector2~1_combout $end
$var wire 1 U RX|state.BITS~q $end
$var wire 1 V RX|Add1~14 $end
$var wire 1 W RX|Add1~9_sumout $end
$var wire 1 X RX|Add1~10 $end
$var wire 1 Y RX|Add1~1_sumout $end
$var wire 1 Z RX|Add1~2 $end
$var wire 1 [ RX|Add1~5_sumout $end
$var wire 1 \ RX|Decoder0~1_combout $end
$var wire 1 ] RX|Selector3~3_combout $end
$var wire 1 ^ RX|state.PAR~q $end
$var wire 1 _ RX|parity_calc~0_combout $end
$var wire 1 ` RX|parity_calc~q $end
$var wire 1 a RX|Selector4~0_combout $end
$var wire 1 b RX|state.STOP~q $end
$var wire 1 c RX|data[0]~0_combout $end
$var wire 1 d RX|data_valid~DUPLICATE_q $end
$var wire 1 e rx_ready_d~q $end
$var wire 1 f RX|data_valid~q $end
$var wire 1 g tx_start_pulse~0_combout $end
$var wire 1 h tx_start_pulse~q $end
$var wire 1 i TX|bits_left[0]~1_combout $end
$var wire 1 j TX|bits_left[0]~DUPLICATE_q $end
$var wire 1 k TX|Equal1~0_combout $end
$var wire 1 l RX|Decoder0~0_combout $end
$var wire 1 m RX|rxbuf[3]~3_combout $end
$var wire 1 n RX|data[4]~feeder_combout $end
$var wire 1 o RX|rxbuf[2]~2_combout $end
$var wire 1 p RX|rxbuf[1]~1_combout $end
$var wire 1 q RX|rxbuf[7]~7_combout $end
$var wire 1 r RX|data[7]~feeder_combout $end
$var wire 1 s RX|data[4]~DUPLICATE_q $end
$var wire 1 t RX|rxbuf[6]~6_combout $end
$var wire 1 u RX|rxbuf[5]~5_combout $end
$var wire 1 v TX|WideXor0~0_combout $end
$var wire 1 w RX|rxbuf[0]~0_combout $end
$var wire 1 x TX|shifter~10_combout $end
$var wire 1 y TX|shifter~1_combout $end
$var wire 1 z TX|shifter~9_combout $end
$var wire 1 { TX|shifter~8_combout $end
$var wire 1 | TX|always2~0_combout $end
$var wire 1 } TX|shifter~7_combout $end
$var wire 1 ~ TX|shifter~6_combout $end
$var wire 1 !! TX|shifter~5_combout $end
$var wire 1 "! TX|shifter~4_combout $end
$var wire 1 #! TX|shifter~3_combout $end
$var wire 1 $! TX|shifter~2_combout $end
$var wire 1 %! TX|shifter~0_combout $end
$var wire 1 &! TX|tx~0_combout $end
$var wire 1 '! TX|tx~q $end
$var wire 1 (! RX|bitpos [3] $end
$var wire 1 )! RX|bitpos [2] $end
$var wire 1 *! RX|bitpos [1] $end
$var wire 1 +! RX|bitpos [0] $end
$var wire 1 ,! TX|cnt [2] $end
$var wire 1 -! TX|cnt [1] $end
$var wire 1 .! TX|cnt [0] $end
$var wire 1 /! TX|bits_left [3] $end
$var wire 1 0! TX|bits_left [2] $end
$var wire 1 1! TX|bits_left [1] $end
$var wire 1 2! TX|bits_left [0] $end
$var wire 1 3! RX|data [7] $end
$var wire 1 4! RX|data [6] $end
$var wire 1 5! RX|data [5] $end
$var wire 1 6! RX|data [4] $end
$var wire 1 7! RX|data [3] $end
$var wire 1 8! RX|data [2] $end
$var wire 1 9! RX|data [1] $end
$var wire 1 :! RX|data [0] $end
$var wire 1 ;! RX|rxbuf [7] $end
$var wire 1 <! RX|rxbuf [6] $end
$var wire 1 =! RX|rxbuf [5] $end
$var wire 1 >! RX|rxbuf [4] $end
$var wire 1 ?! RX|rxbuf [3] $end
$var wire 1 @! RX|rxbuf [2] $end
$var wire 1 A! RX|rxbuf [1] $end
$var wire 1 B! RX|rxbuf [0] $end
$var wire 1 C! TX|shifter [10] $end
$var wire 1 D! TX|shifter [9] $end
$var wire 1 E! TX|shifter [8] $end
$var wire 1 F! TX|shifter [7] $end
$var wire 1 G! TX|shifter [6] $end
$var wire 1 H! TX|shifter [5] $end
$var wire 1 I! TX|shifter [4] $end
$var wire 1 J! TX|shifter [3] $end
$var wire 1 K! TX|shifter [2] $end
$var wire 1 L! TX|shifter [1] $end
$var wire 1 M! TX|shifter [0] $end
$var wire 1 N! RX|baud_cnt [2] $end
$var wire 1 O! RX|baud_cnt [1] $end
$var wire 1 P! RX|baud_cnt [0] $end
$upscope $end
$upscope $end
$enddefinitions $end
#0
$dumpvars
0!
1"
1#
1$
x%
0&
1'
x(
1)
1*
1+
0,
0-
1.
0/
00
01
02
13
14
05
06
07
08
09
0:
0;
0<
0=
0>
0?
0@
0A
1B
0C
0D
1E
0F
1G
0H
0I
0J
0K
0L
0M
0N
0O
1P
0Q
0R
0S
0T
0U
0V
0W
0X
0Y
0Z
0[
0\
0]
0^
0_
0`
0a
0b
0c
0d
0e
0f
0g
0h
0i
0j
1k
0l
0m
0n
0o
0p
0q
0r
0s
0t
0u
0v
0w
0x
0y
0z
0{
0|
0}
0~
0!!
0"!
0#!
0$!
0%!
0&!
0'!
0+!
0*!
0)!
0(!
0.!
0-!
0,!
02!
01!
00!
0/!
0:!
09!
08!
07!
06!
05!
04!
03!
0B!
0A!
0@!
0?!
0>!
0=!
0<!
0;!
0M!
0L!
0K!
0J!
0I!
0H!
0G!
0F!
0E!
0D!
zC!
0P!
0O!
0N!
$end
#10000
1!
10
12
0%
1Q
1O
1P!
1F
1C
1.!
1,
0G
1I
03
15
0E
#20000
0!
00
02
1%
#30000
1!
10
12
0%
1N!
0P!
0F
1D
1-!
0.!
1G
13
#40000
0!
00
02
1%
#50000
1!
10
12
0%
1P!
1.!
0G
1H
03
05
16
#60000
0!
00
02
1%
#70000
1!
10
12
0%
1O!
0P!
1,!
0-!
0.!
1G
13
#80000
0!
00
02
1%
#90000
1!
10
12
0%
1P!
1.!
0G
0H
0I
1J
03
15
#100000
0!
00
02
1%
#110000
1!
10
12
0%
1R
1K
0N!
0O!
0P!
1-!
0.!
0.
1L
0P
0J
1G
13
#120000
0!
00
02
1%
#130000
1!
10
12
0%
0R
0Q
0O
0K
1P!
1.!
0,
0L
0G
1H
03
05
06
17
#140000
0!
00
02
1%
#150000
1!
10
12
0%
1O!
0P!
1=
18
0,!
0-!
0.!
1G
07
13
#160000
0!
00
02
1%
#170000
1!
10
12
0%
1P!
0=
08
1.!
0G
0H
1I
03
15
#180000
0!
00
02
1%
#190000
0#
1!
0B
10
12
0%
1N!
0O!
0P!
0C
1-!
0.!
1G
13
#200000
0!
00
02
1%
#210000
1!
10
12
0%
1P!
0D
1.!
0G
1H
1.
1E
03
05
16
1P
#220000
0!
00
02
1%
#230000
1!
10
12
0%
1Q
1O
1O!
0P!
1F
1,!
0-!
0.!
1,
0H
13
0E
#240000
0!
00
02
1%
#250000
1!
10
12
0%
0O!
0F
1.!
1G
03
15
#260000
0!
00
02
1%
#270000
1!
10
12
0%
1P!
1-!
0.!
0G
1H
13
#280000
0!
00
02
1%
#290000
1!
10
12
0%
1O!
0P!
1.!
1G
03
05
06
17
#300000
0!
00
02
1%
#310000
1!
10
12
0%
1P!
1=
18
0,!
0-!
0.!
0G
0H
0I
1J
07
13
#320000
0!
00
02
1%
#330000
1!
10
12
0%
1R
1K
0N!
0O!
0P!
0=
08
1.!
1L
1M
0P
1T
0J
1G
03
15
#340000
0!
00
02
1%
#350000
1!
10
12
0%
1U
0R
0Q
0O
0K
1P!
1-!
0.!
1S
0T
0L
0G
1H
13
1T
#360000
0!
00
02
1%
#370000
1!
10
12
0%
1O!
0P!
1.!
1G
03
05
16
#380000
0!
00
02
1%
#390000
1!
10
12
0%
1P!
1,!
0-!
0.!
0G
0H
1I
13
#400000
0!
00
02
1%
#410000
1!
10
12
0%
1N!
0O!
0P!
1.!
1G
03
15
#420000
0!
00
02
1%
#430000
1!
10
12
0%
1P!
1-!
0.!
0G
1H
13
#440000
0!
00
02
1%
#450000
1!
10
12
0%
1O!
0P!
1.!
1G
03
05
06
17
#460000
0!
00
02
1%
#470000
1!
10
12
0%
1P!
1=
18
0,!
0-!
0.!
0G
0H
0I
1J
07
13
#480000
0!
00
02
1%
#490000
1!
10
12
0%
1R
1K
0N!
0O!
0P!
0=
08
1.!
1l
1L
0J
1G
03
15
#500000
0!
00
02
1%
#510000
1#
1!
1B
10
12
0%
1+!
0R
1N
0K
1P!
1C
1-!
0.!
0l
0G
1H
13
#520000
0!
00
02
1%
#530000
1!
10
12
0%
1O!
0P!
1D
1.!
1G
03
05
16
#540000
0!
00
02
1%
#550000
1!
10
12
0%
1P!
1,!
0-!
0.!
0G
0H
1I
13
#560000
0!
00
02
1%
#570000
1!
10
12
0%
1N!
0O!
0P!
1.!
1G
03
15
#580000
0!
00
02
1%
#590000
1!
10
12
0%
1P!
1-!
0.!
0G
1H
13
#600000
0!
00
02
1%
#610000
1!
10
12
0%
1O!
0P!
1.!
1G
03
05
06
17
#620000
0!
00
02
1%
#630000
1!
10
12
0%
1P!
1=
18
0,!
0-!
0.!
0G
0H
0I
1J
07
13
#640000
0!
00
02
1%
#650000
1!
10
12
0%
1R
1K
0N!
0O!
0P!
0=
08
1.!
1_
1l
1V
0L
0J
1G
03
15
1W
1p
#660000
0!
00
02
1%
#670000
1!
10
12
0%
1A!
1`
1*!
0+!
0R
0N
0K
1P!
1-!
0.!
1X
0W
1o
0V
0l
0G
1H
13
1Y
0X
1W
0o
0Y
#680000
0!
00
02
1%
#690000
1!
10
12
0%
1O!
0P!
1.!
1G
03
05
16
#700000
0!
00
02
1%
#710000
1!
10
12
0%
1P!
1,!
0-!
0.!
0G
0H
1I
13
#720000
0!
00
02
1%
#730000
1!
10
12
0%
1N!
0O!
0P!
1.!
1G
03
15
#740000
0!
00
02
1%
#750000
1!
10
12
0%
1P!
1-!
0.!
0G
1H
13
#760000
0!
00
02
1%
#770000
1!
10
12
0%
1O!
0P!
1.!
1G
03
05
06
17
#780000
0!
00
02
1%
#790000
1!
10
12
0%
1P!
1=
18
0,!
0-!
0.!
0G
0H
0I
1J
07
13
#800000
0!
00
02
1%
#810000
1!
10
12
0%
1R
1K
0N!
0O!
0P!
0=
08
1.!
0_
1l
1L
0J
1G
03
15
1o
#820000
0!
00
02
1%
#830000
0#
1!
0B
10
12
0%
1@!
0`
1+!
0R
1N
0K
1P!
0C
1-!
0.!
1m
0l
0G
1H
13
0m
#840000
0!
00
02
1%
#850000
1!
10
12
0%
1O!
0P!
0D
1.!
1G
03
05
16
#860000
0!
00
02
1%
#870000
1!
10
12
0%
1P!
1,!
0-!
0.!
0G
0H
1I
13
#880000
0!
00
02
1%
#890000
1!
10
12
0%
1N!
0O!
0P!
1.!
1G
03
15
#900000
0!
00
02
1%
#910000
1!
10
12
0%
1P!
1-!
0.!
0G
1H
13
#920000
0!
00
02
1%
#930000
1!
10
12
0%
1O!
0P!
1.!
1G
03
05
06
17
#940000
0!
00
02
1%
#950000
1!
10
12
0%
1P!
1=
18
0,!
0-!
0.!
0G
0H
0I
1J
07
13
#960000
0!
00
02
1%
#970000
1!
10
12
0%
1R
1K
0N!
0O!
0P!
0=
08
1.!
1l
1V
0L
0J
1G
03
15
1X
0W
1Y
#980000
0!
00
02
1%
#990000
1#
1!
1B
10
12
0%
1)!
0*!
0+!
0R
0N
0K
1P!
1C
1-!
0.!
1Z
0Y
0l
0X
1W
0V
0G
1H
13
1[
0Z
1Y
0W
0[
#1000000
0!
00
02
1%
#1010000
1!
10
12
0%
1O!
0P!
1D
1.!
1G
03
05
16
#1020000
0!
00
02
1%
#1030000
1!
10
12
0%
1P!
1,!
0-!
0.!
0G
0H
1I
13
#1040000
0!
00
02
1%
#1050000
1!
10
12
0%
1N!
0O!
0P!
1.!
1G
03
15
#1060000
0!
00
02
1%
#1070000
1!
10
12
0%
1P!
1-!
0.!
0G
1H
13
#1080000
0!
00
02
1%
#1090000
1!
10
12
0%
1O!
0P!
1.!
1G
03
05
06
17
#1100000
0!
00
02
1%
#1110000
1!
10
12
0%
1P!
1=
18
0,!
0-!
0.!
0G
0H
0I
1J
07
13
#1120000
0!
00
02
1%
#1130000
1!
10
12
0%
1R
1K
0N!
0O!
0P!
0=
08
1.!
1\
1_
1L
0J
1G
03
15
1/
#1140000
0!
00
02
1%
#1150000
0#
1!
0B
10
12
0%
1`
1+!
0R
1N
0K
1P!
0C
1-!
0.!
1>!
1u
0\
0G
1H
13
1n
0u
#1160000
0!
00
02
1%
#1170000
1!
10
12
0%
1O!
0P!
0D
1.!
1G
03
05
16
#1180000
0!
00
02
1%
#1190000
1!
10
12
0%
1P!
1,!
0-!
0.!
0G
0H
1I
13
#1200000
0!
00
02
1%
#1210000
1!
10
12
0%
1N!
0O!
0P!
1.!
1G
03
15
#1220000
0!
00
02
1%
#1230000
1!
10
12
0%
1P!
1-!
0.!
0G
1H
13
#1240000
0!
00
02
1%
#1250000
1!
10
12
0%
1O!
0P!
1.!
1G
03
05
06
17
#1260000
0!
00
02
1%
#1270000
1!
10
12
0%
1P!
1=
18
0,!
0-!
0.!
0G
0H
0I
1J
07
13
#1280000
0!
00
02
1%
#1290000
1!
10
12
0%
1R
1K
0N!
0O!
0P!
0=
08
1.!
1\
1V
0L
0J
1G
03
15
1W
#1300000
0!
00
02
1%
#1310000
1!
10
12
0%
1*!
0+!
0R
0N
0K
1P!
1-!
0.!
1X
0W
0V
0\
0G
1H
13
1Z
0Y
0X
1W
1[
0Z
1Y
0[
#1320000
0!
00
02
1%
#1330000
1!
10
12
0%
1O!
0P!
1.!
1G
03
05
16
#1340000
0!
00
02
1%
#1350000
1!
10
12
0%
1P!
1,!
0-!
0.!
0G
0H
1I
13
#1360000
0!
00
02
1%
#1370000
1!
10
12
0%
1N!
0O!
0P!
1.!
1G
03
15
#1380000
0!
00
02
1%
#1390000
1!
10
12
0%
1P!
1-!
0.!
0G
1H
13
#1400000
0!
00
02
1%
#1410000
1!
10
12
0%
1O!
0P!
1.!
1G
03
05
06
17
#1420000
0!
00
02
1%
#1430000
1!
10
12
0%
1P!
1=
18
0,!
0-!
0.!
0G
0H
0I
1J
07
13
#1440000
0!
00
02
1%
#1450000
1!
10
12
0%
1R
1K
0N!
0O!
0P!
0=
08
1.!
1\
1L
0J
1G
03
15
#1460000
0!
00
02
1%
#1470000
1!
10
12
0%
1+!
0R
1N
0K
1P!
1-!
0.!
1]
0\
0G
1H
13
0]
#1480000
0!
00
02
1%
#1490000
1!
10
12
0%
1O!
0P!
1.!
1G
03
05
16
#1500000
0!
00
02
1%
#1510000
1!
10
12
0%
1P!
1,!
0-!
0.!
0G
0H
1I
13
#1520000
0!
00
02
1%
#1530000
1!
10
12
0%
1N!
0O!
0P!
1.!
1G
03
15
#1540000
0!
00
02
1%
#1550000
1!
10
12
0%
1P!
1-!
0.!
0G
1H
13
#1560000
0!
00
02
1%
#1570000
1!
10
12
0%
1O!
0P!
1.!
1G
03
05
06
17
#1580000
0!
00
02
1%
#1590000
1!
10
12
0%
1P!
1=
18
0,!
0-!
0.!
0G
0H
0I
1J
07
13
#1600000
0!
00
02
1%
#1610000
1!
10
12
0%
1R
1K
0N!
0O!
0P!
0=
08
1.!
0S
1\
1V
0L
0J
1G
03
15
1X
0W
0T
1]
1Z
0Y
1[
#1620000
0!
00
02
1%
#1630000
1#
1!
1B
10
12
0%
1^
1(!
0)!
0*!
0+!
0U
0R
0N
0K
1P!
1C
1-!
0.!
0[
0\
0Z
1Y
0/
0X
1W
0V
0M
0G
1H
13
1[
0Y
0W
1/
#1640000
0!
00
02
1%
#1650000
1!
10
12
0%
1O!
0P!
1D
1.!
1G
03
05
16
#1660000
0!
00
02
1%
#1670000
1!
10
12
0%
1P!
1,!
0-!
0.!
0G
0H
1I
13
#1680000
0!
00
02
1%
#1690000
1!
10
12
0%
1N!
0O!
0P!
1.!
1G
03
15
#1700000
0!
00
02
1%
#1710000
1!
10
12
0%
1P!
1-!
0.!
0G
1H
13
#1720000
0!
00
02
1%
#1730000
1!
10
12
0%
1O!
0P!
1.!
1G
03
05
06
17
#1740000
0!
00
02
1%
#1750000
1!
10
12
0%
1P!
1=
18
0,!
0-!
0.!
0G
0H
0I
1J
07
13
#1760000
0!
00
02
1%
#1770000
1!
10
12
0%
1R
1K
0N!
0O!
0P!
0=
08
1.!
0]
1a
1L
0J
1G
03
15
#1780000
0!
00
02
1%
#1790000
1!
10
12
0%
1b
0^
0R
0K
1P!
1-!
0.!
0L
0G
1H
13
#1800000
0!
00
02
1%
#1810000
1!
10
12
0%
1O!
0P!
1.!
1G
03
05
16
#1820000
0!
00
02
1%
#1830000
1!
10
12
0%
1P!
1,!
0-!
0.!
0G
0H
1I
13
#1840000
0!
00
02
1%
#1850000
1!
10
12
0%
1N!
0O!
0P!
1.!
1G
03
15
#1860000
0!
00
02
1%
#1870000
1!
10
12
0%
1P!
1-!
0.!
0G
1H
13
#1880000
0!
00
02
1%
#1890000
1!
10
12
0%
1O!
0P!
1.!
1G
03
05
06
17
#1900000
0!
00
02
1%
#1910000
1!
10
12
0%
1P!
1=
18
0,!
0-!
0.!
0G
0H
0I
1J
07
13
#1920000
0!
00
02
1%
#1930000
1!
10
12
0%
1R
1K
0N!
0O!
0P!
0=
08
1.!
1-
0a
1c
1L
0J
1G
03
15
0.
#1940000
0!
00
02
1%
#1950000
1!
10
12
0%
1s
19!
18!
16!
1f
1d
0b
0R
0K
1P!
1-!
0.!
0,
1v
1g
0-
0c
0L
0G
1H
13
#1960000
0!
00
02
1%
#1970000
1!
10
12
0%
1h
0f
1e
0d
1O!
0P!
1;
1.!
19
1i
1y
1|
0g
1G
1>
03
05
16
1z
1{
1}
1!!
1$!
1%!
#1980000
0!
00
02
1%
#1990000
1!
10
12
0%
1M!
1L!
1I!
1G!
1F!
1E!
1/!
1j
0h
0e
1P!
12!
1?
1<
0;
1:
11!
1,!
0-!
0.!
0k
0|
0y
0G
0H
1I
13
0z
1~
0!!
1"!
0$!
#2000000
0!
00
02
1%
#2010000
1!
10
12
0%
1N!
0O!
0P!
0<
1.!
1G
03
15
#2020000
0!
00
02
1%
#2030000
1!
10
12
0%
1P!
1-!
0.!
0G
1H
13
#2040000
0!
00
02
1%
#2050000
1!
10
12
0%
1O!
0P!
1.!
1G
03
05
06
17
#2060000
0!
00
02
1%
#2070000
1!
10
12
0%
1P!
1=
18
0,!
0-!
0.!
0G
0H
0I
1J
0i
1y
1&!
07
13
#2080000
0!
00
02
1%
#2090000
1!
10
12
0%
1'!
0L!
1J!
0I!
1H!
0E!
0j
1R
1K
0N!
0O!
0P!
02!
0=
08
1.!
0%!
1#!
0"!
1!!
0{
1L
0J
1G
0y
03
15
0$
#2100000
0!
00
02
1%
#2110000
1!
10
12
0%
0R
0K
1P!
1-!
0.!
0L
0G
1H
13
#2120000
0!
00
02
1%
#2130000
1!
10
12
0%
1O!
0P!
1.!
1G
03
05
16
#2140000
0!
00
02
1%
#2150000
1!
10
12
0%
1P!
1,!
0-!
0.!
0G
0H
1I
13
#2160000
0!
00
02
1%
#2170000
1!
10
12
0%
1N!
0O!
0P!
1.!
1G
03
15
#2180000
0!
00
02
1%
#2190000
1!
10
12
0%
1P!
1-!
0.!
0G
1H
13
#2200000
0!
00
02
1%
#2210000
1!
10
12
0%
1O!
0P!
1.!
1G
03
05
06
17
#2220000
0!
00
02
1%
#2230000
1!
10
12
0%
1P!
1=
18
0,!
0-!
0.!
0G
0H
0I
1J
1i
09
1y
07
13
#2240000
0!
00
02
1%
#2250000
1!
10
12
0%
0M!
1K!
0J!
1I!
0F!
1j
1R
1K
0N!
0O!
0P!
12!
0=
0:
01!
08
1.!
1$!
0#!
1"!
0}
1L
0J
1G
0y
03
15
#2260000
0!
00
02
1%
#2270000
1!
10
12
0%
0R
0K
1P!
1-!
0.!
0L
0G
1H
13
#2280000
0!
00
02
1%
#2290000
1!
10
12
0%
1O!
0P!
1.!
1G
03
05
16
#2300000
0!
00
02
1%
#2310000
1!
10
12
0%
1P!
1,!
0-!
0.!
0G
0H
1I
13
#2320000
0!
00
02
1%
#2330000
1!
10
12
0%
1N!
0O!
0P!
1.!
1G
03
15
#2340000
0!
00
02
1%
#2350000
1!
10
12
0%
1P!
1-!
0.!
0G
1H
13
#2360000
0!
00
02
1%
#2370000
1!
10
12
0%
1O!
0P!
1.!
1G
03
05
06
17
#2380000
0!
00
02
1%
#2390000
1!
10
12
0%
1P!
1=
18
0,!
0-!
0.!
0G
0H
0I
1J
0i
1y
0&!
07
13
#2400000
0!
00
02
1%
#2410000
1!
10
12
0%
0'!
1L!
0K!
1J!
0G!
0j
1R
1K
0N!
0O!
0P!
02!
0=
08
1.!
1%!
0$!
1#!
0~
1L
0J
1G
0y
03
15
1$
#2420000
0!
00
02
1%
#2430000
1!
10
12
0%
0R
0K
1P!
1-!
0.!
0L
0G
1H
13
#2440000
0!
00
02
1%
#2450000
1!
10
12
0%
1O!
0P!
1.!
1G
03
05
16
#2460000
0!
00
02
1%
#2470000
1!
10
12
0%
1P!
1,!
0-!
0.!
0G
0H
1I
13
#2480000
0!
00
02
1%
#2490000
1!
10
12
0%
1N!
0O!
0P!
1.!
1G
03
15
#2500000
0!
00
02
1%
#2510000
1!
10
12
0%
1P!
1-!
0.!
0G
1H
13
#2520000
0!
00
02
1%
#2530000
1!
10
12
0%
1O!
0P!
1.!
1G
03
05
06
17
#2540000
0!
00
02
1%
#2550000
1!
10
12
0%
1P!
1=
18
0,!
0-!
0.!
0G
0H
0I
1J
0>
1i
19
1@
1y
07
13
#2560000
0!
00
02
1%
#2570000
1!
10
12
0%
1M!
0L!
1K!
0H!
0/!
1j
1R
1K
0N!
0O!
0P!
1A
10!
12!
0?
0=
1:
11!
08
1.!
0%!
1$!
0!!
1L
0J
1G
0y
03
15
#2580000
0!
00
02
1%
#2590000
1!
10
12
0%
0R
0K
1P!
1-!
0.!
0L
0G
1H
13
#2600000
0!
00
02
1%
#2610000
1!
10
12
0%
1O!
0P!
1.!
1G
03
05
16
#2620000
0!
00
02
1%
#2630000
1!
10
12
0%
1P!
1,!
0-!
0.!
0G
0H
1I
13
#2640000
0!
00
02
1%
#2650000
1!
10
12
0%
1N!
0O!
0P!
1.!
1G
03
15
#2660000
0!
00
02
1%
#2670000
1!
10
12
0%
1P!
1-!
0.!
0G
1H
13
#2680000
0!
00
02
1%
#2690000
1!
10
12
0%
1O!
0P!
1.!
1G
03
05
06
17
#2700000
0!
00
02
1%
#2710000
1!
10
12
0%
1P!
1=
18
0,!
0-!
0.!
0G
0H
0I
1J
0i
1y
1&!
07
13
#2720000
0!
00
02
1%
#2730000
1!
10
12
0%
1'!
0M!
1L!
0I!
0j
1R
1K
0N!
0O!
0P!
02!
0=
08
1.!
1%!
0"!
1L
0J
1G
0y
03
15
0$
#2740000
0!
00
02
1%
#2750000
1!
10
12
0%
0R
0K
1P!
1-!
0.!
0L
0G
1H
13
#2760000
0!
00
02
1%
#2770000
1!
10
12
0%
1O!
0P!
1.!
1G
03
05
16
#2780000
0!
00
02
1%
#2790000
1!
10
12
0%
1P!
1,!
0-!
0.!
0G
0H
1I
13
#2800000
0!
00
02
1%
#2810000
1!
10
12
0%
1N!
0O!
0P!
1.!
1G
03
15
#2820000
0!
00
02
1%
#2830000
1!
10
12
0%
1P!
1-!
0.!
0G
1H
13
#2840000
0!
00
02
1%
#2850000
1!
10
12
0%
1O!
0P!
1.!
1G
03
05
06
17
#2860000
0!
00
02
1%
#2870000
1!
10
12
0%
1P!
1=
18
0,!
0-!
0.!
0G
0H
0I
1J
1i
09
1y
0&!
07
13
#2880000
0!
00
02
1%
#2890000
1!
10
12
0%
0'!
1M!
0J!
1j
1R
1K
0N!
0O!
0P!
12!
0=
0:
01!
08
1.!
0#!
1L
0J
1G
0y
03
15
1$
#2900000
0!
00
02
1%
#2910000
1!
10
12
0%
0R
0K
1P!
1-!
0.!
0L
0G
1H
13
#2920000
0!
00
02
1%
#2930000
1!
10
12
0%
1O!
0P!
1.!
1G
03
05
16
#2940000
0!
00
02
1%
#2950000
1!
10
12
0%
1P!
1,!
0-!
0.!
0G
0H
1I
13
#2960000
0!
00
02
1%
#2970000
1!
10
12
0%
1N!
0O!
0P!
1.!
1G
03
15
#2980000
0!
00
02
1%
#2990000
1!
10
12
0%
1P!
1-!
0.!
0G
1H
13
#3000000
0!
00
02
1%
#3010000
1!
10
12
0%
1O!
0P!
1.!
1G
03
05
06
17
#3020000
0!
00
02
1%
#3030000
1!
10
12
0%
1P!
1=
18
0,!
0-!
0.!
0G
0H
0I
1J
0i
1y
1&!
07
13
#3040000
0!
00
02
1%
#3050000
1!
10
12
0%
1'!
0K!
0j
1R
1K
0N!
0O!
0P!
02!
0=
08
1.!
0$!
1L
0J
1G
0y
03
15
0$
#3060000
0!
00
02
1%
#3070000
1!
10
12
0%
0R
0K
1P!
1-!
0.!
0L
0G
1H
13
#3080000
0!
00
02
1%
#3090000
1!
10
12
0%
1O!
0P!
1.!
1G
03
05
16
#3100000
0!
00
02
1%
#3110000
1!
10
12
0%
1P!
1,!
0-!
0.!
0G
0H
1I
13
#3120000
0!
00
02
1%
#3130000
1!
10
12
0%
1N!
0O!
0P!
1.!
1G
03
15
#3140000
0!
00
02
1%
#3150000
1!
10
12
0%
1P!
1-!
0.!
0G
1H
13
#3160000
0!
00
02
1%
#3170000
1!
10
12
0%
1O!
0P!
1.!
1G
03
05
06
17
#3180000
0!
00
02
1%
#3190000
1!
10
12
0%
1P!
1=
18
0,!
0-!
0.!
0G
0H
0I
1J
1i
19
0@
1y
07
13
#3200000
0!
00
02
1%
#3210000
1!
10
12
0%
0L!
1j
1R
1K
0N!
0O!
0P!
0A
00!
12!
0=
1:
11!
08
1.!
0%!
1L
0J
1G
0y
03
15
#3220000
0!
00
02
1%
#3230000
1!
10
12
0%
0R
0K
1P!
1-!
0.!
0L
0G
1H
13
#3240000
0!
00
02
1%
#3250000
1!
10
12
0%
1O!
0P!
1.!
1G
03
05
16
#3260000
0!
00
02
1%
#3270000
1!
10
12
0%
1P!
1,!
0-!
0.!
0G
0H
1I
13
#3280000
0!
00
02
1%
#3290000
1!
10
12
0%
1N!
0O!
0P!
1.!
1G
03
15
#3300000
0!
00
02
1%
#3310000
1!
10
12
0%
1P!
1-!
0.!
0G
1H
13
#3320000
0!
00
02
1%
#3330000
1!
10
12
0%
1O!
0P!
1.!
1G
03
05
06
17
#3340000
0!
00
02
1%
#3350000
1!
10
12
0%
1P!
1=
18
0,!
0-!
0.!
0G
0H
0I
1J
0i
1y
07
13
#3360000
0!
00
02
1%
#3370000
1!
10
12
0%
0M!
0j
1R
1K
0N!
0O!
0P!
02!
0=
08
1.!
1L
0J
1G
0y
03
15
#3380000
0!
00
02
1%
#3390000
1!
10
12
0%
0R
0K
1P!
1-!
0.!
0L
0G
1H
13
#3400000
0!
00
02
1%
#3410000
1!
10
12
0%
1O!
0P!
1.!
1G
03
05
16
#3420000
0!
00
02
1%
#3430000
1!
10
12
0%
1P!
1,!
0-!
0.!
0G
0H
1I
13
#3440000
0!
00
02
1%
#3450000
1!
10
12
0%
1N!
0O!
0P!
1.!
1G
03
15
#3460000
0!
00
02
1%
#3470000
1!
10
12
0%
1P!
1-!
0.!
0G
1H
13
#3480000
0!
00
02
1%
#3490000
1!
10
12
0%
1O!
0P!
1.!
1G
03
05
06
17
#3500000
0!
00
02
1%
